-------------------------------------------------------------------------------
Test set: es.kazbeel.geckobugtracker.model.RemembermeTokenTest
-------------------------------------------------------------------------------
Tests run: 7, Failures: 0, Errors: 0, Skipped: 0, Time elapsed: 0.031 sec
