-------------------------------------------------------------------------------
Test set: es.kazbeel.geckobugtracker.repository.ProjectVersionDaoTest
-------------------------------------------------------------------------------
Tests run: 5, Failures: 0, Errors: 0, Skipped: 0, Time elapsed: 0.046 sec
