-------------------------------------------------------------------------------
Test set: es.kazbeel.geckobugtracker.web.controller.admin.StatusControllerTest
-------------------------------------------------------------------------------
Tests run: 12, Failures: 0, Errors: 0, Skipped: 0, Time elapsed: 0.094 sec
