-------------------------------------------------------------------------------
Test set: es.kazbeel.geckobugtracker.model.AttachmentTest
-------------------------------------------------------------------------------
Tests run: 8, Failures: 0, Errors: 0, Skipped: 0, Time elapsed: 2.703 sec
