-------------------------------------------------------------------------------
Test set: es.kazbeel.geckobugtracker.web.controller.admin.SectionControllerTest
-------------------------------------------------------------------------------
Tests run: 18, Failures: 0, Errors: 0, Skipped: 0, Time elapsed: 0.156 sec
